unit_id,unit_type_number
DEME,7
68,2
98,2
M07,2
E24,3
T14,1
T11,1
SO19,7
AM130,5
PT5,5
RA09,6
BLS804,0
M18,2
MTZ,7
CC02,7
KM12,5
GATOR6,7
AM56,5
E47,3
74,2
RC1,4
AM304,5
T07,1
57,2
AM24,5
E08,3
63,2
KM11,5
MMRS,7
SJ111,5
T18,1
PT204,5
MP32,7
AM11,5
A889,5
AM02A,5
RA13,6
K91,5
KM04A,5
KM10A,5
SMAMR,7
K1194,5
K1245,5
B02,0
A156,5
A216,5
K720,5
AR1,8
AM102,5
P273,5
CO2,7
AM32,5
BS107,5
M48,2
HT48,7
FHT38,7
87,2
M16,2
EMS5,0
MD1,7
A158,5
MMTS,7
K1327,5
AM62,5
M15,2
EMS10,0
AMRM6,5
HSA1,7
PT332,5
58,2
M09,2
RB1,7
SR34,7
FHT22,7
90,2
FA753,7
A909,5
KM06,5
RE864,5
RA07,6
A101,5
M32,2
BE2,7
GATR1,7
FHT17,7
CR1,7
CR2,7
BLS800,0
RC6,4
RA35,6
50,2
MP3,7
DECON1,7
K1181,5
KM01,5
AM04,5
A61,6
DECON2,7
EMS7,0
CD3,0
AM114,5
E25,3
B07,0
60,2
K895,5
K1076,5
RC51,4
D1,0
PT109,5
AM60,5
K1240,5
FHT48,7
SJ114,5
52,2
A51,6
MA2,7
AMR2,5
AM207,5
AM227,5
B11,0
PT04,5
AM10,5
FAST52,7
56,2
61,2
KM15,5
A802,5
E29,3
E04,3
CD1,0
A152,5
AM05,5
RM06,5
AM98,5
KM09,5
T01,1
FAST06,7
PT200,5
PT706,5
RE581,5
RB2,7
B82,0
K735,5
TF4,1
KM05,5
AM193,5
ALS901,7
B03,0
65,2
BLS1,0
E20,3
TF8,1
AP,6
T03,1
RM03,5
RM07,5
K1294,5
RA02,6
E12,3
KM03,5
K1270,5
A6,7
AR2,8
FAST03,7
AM124,5
PT105,5
A210,5
BS41,5
B10,0
M39,2
KM02,5
E13,3
KA204,5
88,2
E26,3
EMS4,0
MP4,7
PT2,5
EMS1,0
KM01A,5
RS1,9
FAST02,7
RM726,5
PT4,5
IC01,7
QRV1,7
K888,5
K439,5
MCB1,7
GATOR4,7
B06,0
AM108,5
TF1,1
SO50,7
SM21,7
E21,3
FU1,7
B05,0
AMR305,5
RB202,5
DMAT6,7
AM16,5
A106,5
SH223,7
A204,5
B15,0
M22,2
MP25,7
AM118,5
AM116,5
K585,5
M14,2
BLS801,0
AMRM30,5
SFR2,7
AM07,5
M10,2
MC1,7
PT103,5
M35,2
E53,3
AMRM28,5
AM235,5
SM24,7
MMHZ,7
62,2
AM208,5
ISB1,7
T09,1
79,2
RA08,6
A62,6
ST212,7
PT247,5
E28,3
MP43,7
AM26,5
AM133,5
89,2
KM13,5
B09,0
AM20,5
RM717,5
BLS2,0
E44,3
72,2
AM22,5
E01,3
AM02,5
CR14,7
E32,3
FAST3,7
A154,5
E41,3
AMRM10,5
RL204,7
FAST5,7
MP2,7
FB3,7
A63,6
RB032,5
ISB2,7
73,2
AM106,5
AM981,5
E03,3
M41,2
SFR3,7
GOLF1,7
AM152,5
CBRNE,7
PT10,5
RM05,5
AMREV,5
E05,3
KM02A,5
RC2,4
SH216,7
K790,5
RE586,5
FAST4,7
K922,5
K1173,5
M51,2
AM139,5
FAST2,7
71,2
K1301,5
KAAM16,5
CD2,0
K1300,5
77,2
RB967,5
AM215,5
AHT21,7
OES361,7
RA29,6
SO3,7
RS2,9
SJ113,5
OES248,7
MP9,7
AMR6,5
RWC1,7
E16,3
FB2,7
BA41,5
FAST01,7
K1092,5
K1264,5
PT708,5
75,2
E23,3
K1309,5
66,2
SR1,7
BLS805,0
K1302,5
FAST1,7
AM137,5
A218,5
AHT13,7
PT3,5
AM142,5
GOLF2,7
MP44,7
AM08,5
K1295,5
A922,5
PT205,5
T04,1
RB206,5
PT7,5
D3,0
MCT1,7
E18,3
A202,5
K1271,5
SM23,7
E11,3
SR18,7
AM203,5
E36,3
46,2
KM204,5
E19,3
B04,0
A897,5
PT306,5
KAAM18,5
51,2
ST275,7
E31,3
QRV2,7
TF2,1
EMS3,0
M33,2
AM50,5
AM224,5
AM201,5
K1207,5
47,2
FAST51,7
E06,3
AM305,5
A837,5
FAST6,7
93,2
A782,5
STJ110,5
K1005,5
K92,5
AM14,5
T51,1
SOC1,7
E17,3
81,2
AM214,5
PRO706,7
94,2
45,2
AM64,5
AM129,5
PMC,7
PT9,5
K1077,5
AMRM32,5
A933,5
K847,5
KM16,5
E33,3
84,2
AMRM34,5
AM01,5
RA12,6
E10,3
30,2
B50,0
K1075,5
RM02,5
AM37,5
AM150,5
AM58,5
BE1,7
FASTS,7
AM229,5
A112,5
RB966,5
TF7,7
78,2
T48,1
KA205,5
PT705,5
P245,5
A786,5
M29,2
K1307,5
GATR2,7
RS01,9
AHT42,7
K996,5
E75,3
55,2
AM110,5
AMRM20,5
MCU,7
AM122,5
RB376,5
ALS900,7
T08,1
AMRM12,5
UU1,7
EMS6,0
PC1,7
AM54,5
B84,0
BS105,5
RT614,5
FA269,7
K1146,5
K1217,5
M06,2
91,2
AM135,5
K968,5
T19,1
T10,1
AM128,5
A206,5
BLS803,0
K1210,5
B08,0
M08,2
M57,2
MA1,7
GATOR1,7
FB1,7
FAST15,7
K1313,5
99,2
RB914,5
A641,5
RT607,5
MHOAC,7
RA10,6
AM34,5
KAAM10,5
DCFD2,7
PT202,5
RM734,5
BU1,7
85,2
TF9,1
E22,3
SO2,7
RA28,6
M38,2
M21,2
M03,2
E48,3
AMR137,5
BT01,7
DCE92,7
AM225,5
M11,2
RA48,2
K1247,5
A104,5
54,2
PT107,5
MCB2,7
SJ116,5
FHT18,7
AM115,5
PT100,5
BS102,5
K1105,5
RA05,6
T05,1
K768,5
K669,5
RC52,4
K1268,5
RB916,5
KM05A,5
49,2
AM25,5
E14,3
AM36,5
TI,7
TF5,7
MCU1,7
FAST40,7
A921,5
M01,2
AM210,5
PT203,5
K1244,5
BLS802,0
PT01,5
B01,0
A929,5
A102,5
CBRNE1,7
KM14,5
RA32,6
RM719,5
RC5,4
KM04,5
BS106,5
RL205,7
GATR3,7
T17,1
RM04,5
M02,2
64,2
E37,3
AM131,5
M12,2
EMS2,0
E73,3
PP400,7
A208,5
K1330,5
M36,2
HZ2,7
AM104,5
RC7,4
GATOR3,7
KM08,5
MCU2,7
27,2
AM30,5
AMRM26,5
K1029,5
PT1,5
E51,3
PT6,5
PT106,5
RA41,6
RL206,7
K1265,5
BS01,5
92,2
E07,3
59,2
A291,5
KAAM2,5
AMRM22,5
70,2
AM06,5
MP1,7
STJ111,5
PT05,5
M17,2
E02,3
LR7,7
A304,5
AM120,5
TF6,1
AMRM24,5
AHT7,7
RE583,5
AM18,5
E42,3
AM13,5
BS206,5
TF3,1
DCFD1,7
PT06,5
A214,5
AM125,5
RA33,6
LR5,7
PT101,5
M52,2
RC10,4
P255,5
83,2
M19,2
K1169,5
RM01,5
FHT25,7
AM28,5
K1006,5
AM217,5
AM12,5
T15,1
K1272,5
K667,5
T13,1
CO2R,7
GATOR2,7
AR1A,7
AM52,5
AM99,5
PT707,5
E35,3
S1,7
RWC2,7
96,2
D2,0
T06,1
80,2
BS205,5
53,2
RA03,6
T16,1
FAST26,7
AMRM36,5
PT102,5
AMR8,5
K1306,5
95,2
76,2
FA461,7
82,2
PT201,5
A212,5
J1,7
ST213,7
GATOR5,7
M13,2
RA01,6
KAAM14,5
AHT15,7
E40,3
AM97,5
RA36,6
F16,7
RC4,4
BS103,5
SM209,7
E72,3
M05,2
E39,3
MDC,7
AM202,5
E15,3
E43,3
KM07,5
PT8,5
AM209,5
CC01,7
PT03,5
A71,6
A931,5
HLRV,7
HZ1,7
AM127,5
MP47,7
E09,3
PT270,5
KM01B,5
K834,5
AM126,5
K1190,5
E34,3
KM10,5
K1278,5
AM132,5
86,2
SS1,7
E38,3
E71,3
AM112,5
67,2
SFR1,7
B12,0
OES,7
K1098,5
A917,5
RC3,4
SO1,7
CR19,7
AM200,5
T02,1
T12,1
K917,5
K1242,5
M43,2
AM03,5
ALS902,7
FHT9,7
K1209,5
AM18A,5
MMTF,7
SO18,7
A727,5
E74,3
M28,2
RA16,6
RA38,6
A108,5
